<?xml version="1.0" encoding="UTF-8" standalone="no"?>
<!-- Created with Inkscape (http://www.inkscape.org/) -->

<svg
   xmlns:dc="http://purl.org/dc/elements/1.1/"
   xmlns:cc="http://creativecommons.org/ns#"
   xmlns:rdf="http://www.w3.org/1999/02/22-rdf-syntax-ns#"
   xmlns:svg="http://www.w3.org/2000/svg"
   xmlns="http://www.w3.org/2000/svg"
   xmlns:sodipodi="http://sodipodi.sourceforge.net/DTD/sodipodi-0.dtd"
   xmlns:inkscape="http://www.inkscape.org/namespaces/inkscape"
   width="300"
   height="300"
   viewBox="0 0 79.375005 79.375005"
   version="1.1"
   id="svg8"
   sodipodi:docname="walking.svg"
   inkscape:version="0.92.5 (2060ec1f9f, 2020-04-08)">
  <defs
     id="defs2" />
  <sodipodi:namedview
     id="base"
     pagecolor="#ffffff"
     bordercolor="#666666"
     borderopacity="1.0"
     inkscape:pageopacity="0.0"
     inkscape:pageshadow="2"
     inkscape:zoom="2.0000001"
     inkscape:cx="39.245065"
     inkscape:cy="139.21691"
     inkscape:document-units="mm"
     inkscape:current-layer="layer1"
     showgrid="false"
     inkscape:snap-text-baseline="false"
     inkscape:window-width="1848"
     inkscape:window-height="1016"
     inkscape:window-x="72"
     inkscape:window-y="27"
     inkscape:window-maximized="1"
     fit-margin-top="0"
     fit-margin-left="0"
     fit-margin-right="0"
     fit-margin-bottom="0"
     units="px" />
  <metadata
     id="metadata5">
    <rdf:RDF>
      <cc:Work
         rdf:about="">
        <dc:format>image/svg+xml</dc:format>
        <dc:type
           rdf:resource="http://purl.org/dc/dcmitype/StillImage" />
        <dc:title />
      </cc:Work>
    </rdf:RDF>
  </metadata>
  <g
     inkscape:label="Capa 1"
     inkscape:groupmode="layer"
     id="layer1"
     transform="translate(-69.500391,-43.850404)">
    <g
       id="g835"
       transform="translate(-1.1985037,-2.0528705)">
      <rect
         ry="4.77283"
         transform="matrix(0.99999999,1.2173484e-4,-9.8134436e-5,1,0,0)"
         y="67.701988"
         x="104.73074"
         height="22.71932"
         width="12.783071"
         id="rect832"
         style="fill:#000000;fill-opacity:1;stroke:none;stroke-width:0.60752088;stroke-linecap:round;stroke-linejoin:round;stroke-miterlimit:4;stroke-dasharray:none;stroke-dashoffset:0;stroke-opacity:1" />
      <path
         sodipodi:nodetypes="cc"
         inkscape:connector-curvature="0"
         id="path838"
         d="m 119.07131,100.75873 -0.0729,12.26844"
         style="fill:none;stroke:#000000;stroke-width:4.74125481;stroke-linecap:round;stroke-linejoin:round;stroke-miterlimit:4;stroke-dasharray:none;stroke-opacity:1" />
      <ellipse
         ry="4.6195946"
         rx="4.4910588"
         cy="60.369583"
         cx="111.11449"
         id="path844"
         style="fill:#000000;fill-opacity:1;stroke:none;stroke-width:1.07777286;stroke-miterlimit:4;stroke-dasharray:none;stroke-dashoffset:0;stroke-opacity:1" />
      <path
         inkscape:transform-center-y="4.8171338"
         inkscape:transform-center-x="-2.6345478"
         sodipodi:nodetypes="cc"
         inkscape:connector-curvature="0"
         id="path846-3"
         d="m 114.51259,70.746754 4.80287,7.124249"
         style="fill:none;stroke:#000000;stroke-width:4.74125481;stroke-linecap:round;stroke-linejoin:round;stroke-miterlimit:4;stroke-dasharray:none;stroke-opacity:1" />
      <path
         sodipodi:nodetypes="cc"
         inkscape:connector-curvature="0"
         id="path846-3-6"
         d="m 121.86756,86.075231 -2.5521,-8.204228"
         style="fill:none;stroke:#000000;stroke-width:4.74125481;stroke-linecap:round;stroke-linejoin:round;stroke-miterlimit:4;stroke-dasharray:none;stroke-opacity:1" />
      <path
         sodipodi:nodetypes="cc"
         inkscape:connector-curvature="0"
         id="path846-3-5"
         d="m 98.908565,84.639283 3.448155,-7.983098"
         style="fill:none;stroke:#000000;stroke-width:4.74125481;stroke-linecap:round;stroke-linejoin:round;stroke-miterlimit:4;stroke-dasharray:none;stroke-opacity:1" />
      <path
         sodipodi:nodetypes="cc"
         inkscape:connector-curvature="0"
         id="path846-3-6-3"
         d="m 108.15102,70.408238 -5.7943,6.247947"
         style="fill:none;stroke:#000000;stroke-width:4.74125481;stroke-linecap:round;stroke-linejoin:round;stroke-miterlimit:4;stroke-dasharray:none;stroke-opacity:1" />
      <path
         inkscape:transform-center-y="6.5661724"
         inkscape:transform-center-x="-2.7078072"
         sodipodi:nodetypes="cc"
         inkscape:connector-curvature="0"
         id="path846-3-62"
         d="m 114.63151,89.501294 4.4398,11.257436"
         style="fill:none;stroke:#000000;stroke-width:4.74125481;stroke-linecap:round;stroke-linejoin:round;stroke-miterlimit:4;stroke-dasharray:none;stroke-opacity:1" />
      <path
         inkscape:transform-center-y="4.9247008"
         inkscape:transform-center-x="2.8595206"
         sodipodi:nodetypes="cc"
         inkscape:connector-curvature="0"
         id="path838-2"
         d="m 106.72014,101.94881 -6.07836,10.28402"
         style="fill:none;stroke:#000000;stroke-width:4.74125481;stroke-linecap:round;stroke-linejoin:round;stroke-miterlimit:4;stroke-dasharray:none;stroke-opacity:1" />
      <path
         inkscape:transform-center-y="7.1850405"
         inkscape:transform-center-x="1.2138845"
         sodipodi:nodetypes="cc"
         inkscape:connector-curvature="0"
         id="path846-3-62-7"
         d="m 108.32054,89.828286 -1.6004,12.120524"
         style="fill:none;stroke:#000000;stroke-width:4.74125481;stroke-linecap:round;stroke-linejoin:round;stroke-miterlimit:4;stroke-dasharray:none;stroke-opacity:1" />
    </g>
  </g>
</svg>
